<svg viewBox="0 0 48 48" fill="none" xmlns="http://www.w3.org/2000/svg">
<path d="M30 15C30 6.71573 23.2843 0 15 0C6.71573 0 0 6.71573 0 15V30H15C23.2843 30 30 23.2843 30 15Z" fill="url(#paint0_radial)"/>
<path d="M12 30C12 20.0589 20.0589 12 30 12C39.9411 12 48 20.0589 48 30V48H30C20.0589 48 12 39.9411 12 30Z" fill="url(#paint1_radial)"/>
<path d="M32.38 25.172V35H29.986V30.954H26.262V35H23.868V25.172H26.262V29.022H29.986V25.172H32.38ZM35.3122 26.376C34.8922 26.376 34.5469 26.2547 34.2762 26.012C34.0149 25.76 33.8842 25.452 33.8842 25.088C33.8842 24.7147 34.0149 24.4067 34.2762 24.164C34.5469 23.912 34.8922 23.786 35.3122 23.786C35.7229 23.786 36.0589 23.912 36.3202 24.164C36.5909 24.4067 36.7262 24.7147 36.7262 25.088C36.7262 25.452 36.5909 25.76 36.3202 26.012C36.0589 26.2547 35.7229 26.376 35.3122 26.376ZM36.5022 27.188V35H34.1082V27.188H36.5022Z" fill="white"/>
<defs>
<radialGradient id="paint0_radial" cx="0" cy="0" r="1" gradientUnits="userSpaceOnUse" gradientTransform="translate(26 8) rotate(141.754) scale(54.1156)">
<stop stop-color="#06C899"/>
<stop offset="0.785443" stop-color="#208B72"/>
</radialGradient>
<radialGradient id="paint1_radial" cx="0" cy="0" r="1" gradientUnits="userSpaceOnUse" gradientTransform="translate(48 20) rotate(141.34) scale(44.8219)">
<stop stop-color="#057B74"/>
<stop offset="0.842277" stop-color="#66A8A4"/>
</radialGradient>
</defs>
</svg>
