<svg viewBox="0 0 20 20" fill="none" xmlns="http://www.w3.org/2000/svg">
<path d="M14 8C14 5.2375 11.0906 3 7.5 3C3.90937 3 1 5.2375 1 8C1 9.07188 1.44063 10.0594 2.1875 10.875C1.76875 11.8188 1.07812 12.5688 1.06875 12.5781C1 12.65 0.98125 12.7563 1.02187 12.85C1.0625 12.9438 1.15 13 1.25 13C2.39375 13 3.34062 12.6156 4.02187 12.2188C5.02812 12.7094 6.21875 13 7.5 13C11.0906 13 14 10.7625 14 8ZM17.8125 14.875C18.5594 14.0625 19 13.0719 19 12C19 9.90938 17.3281 8.11875 14.9594 7.37187C14.9875 7.57812 15 7.7875 15 8C15 11.3094 11.6344 14 7.5 14C7.1625 14 6.83437 13.975 6.50938 13.9406C7.49375 15.7375 9.80625 17 12.5 17C13.7812 17 14.9719 16.7125 15.9781 16.2188C16.6594 16.6156 17.6063 17 18.75 17C18.85 17 18.9406 16.9406 18.9781 16.85C19.0187 16.7594 19 16.6531 18.9312 16.5781C18.9219 16.5688 18.2313 15.8219 17.8125 14.875Z" fill="currentColor"/>
</svg>
