<svg viewBox="0 0 32 32" fill="none" xmlns="http://www.w3.org/2000/svg">
<path d="M4.6665 22.2222V9.77778C4.6665 8.91867 5.36295 8.22222 6.22206 8.22222H10.2444C10.657 8.22222 11.0526 8.05833 11.3443 7.76661L14.4554 4.6555C15.4354 3.67555 17.1109 4.36959 17.1109 5.75544V26.2446C17.1109 27.6304 15.4354 28.3244 14.4554 27.3445L11.3443 24.2334C11.0526 23.9417 10.657 23.7778 10.2444 23.7778H6.22206C5.36295 23.7778 4.6665 23.0813 4.6665 22.2222Z" fill="currentColor"/>
<mask id="path-2-inside-1" fill="currentColor">
<path d="M18.9095 9.86713C19.4194 9.23018 20.3597 9.12041 20.9083 9.72435C21.5137 10.3907 22.0212 11.1431 22.4132 11.9593C23.0191 13.221 23.3335 14.6027 23.3332 16.0023C23.3328 17.4019 23.0177 18.7835 22.4112 20.0448C22.0188 20.8608 21.5109 21.613 20.9052 22.2791C20.3563 22.8828 19.416 22.7725 18.9064 22.1353C18.3968 21.4981 18.5176 20.5763 19.0208 19.934C19.304 19.5727 19.5482 19.1807 19.7484 18.7643C20.1629 17.9023 20.3782 16.9581 20.3785 16.0016C20.3787 15.0451 20.1638 14.1007 19.7497 13.2385C19.5497 12.8221 19.3057 12.43 19.0228 12.0684C18.5199 11.4259 18.3996 10.5041 18.9095 9.86713Z"/>
</mask>
<path d="M18.9095 9.86713C19.4194 9.23018 20.3597 9.12041 20.9083 9.72435C21.5137 10.3907 22.0212 11.1431 22.4132 11.9593C23.0191 13.221 23.3335 14.6027 23.3332 16.0023C23.3328 17.4019 23.0177 18.7835 22.4112 20.0448C22.0188 20.8608 21.5109 21.613 20.9052 22.2791C20.3563 22.8828 19.416 22.7725 18.9064 22.1353C18.3968 21.4981 18.5176 20.5763 19.0208 19.934C19.304 19.5727 19.5482 19.1807 19.7484 18.7643C20.1629 17.9023 20.3782 16.9581 20.3785 16.0016C20.3787 15.0451 20.1638 14.1007 19.7497 13.2385C19.5497 12.8221 19.3057 12.43 19.0228 12.0684C18.5199 11.4259 18.3996 10.5041 18.9095 9.86713Z" stroke="#7A4882" stroke-width="3.11111" mask="url(#path-2-inside-1)"/>
<mask id="path-3-inside-2" fill="currentColor">
<path d="M21.8846 6.28415C22.4022 5.64628 23.3456 5.54364 23.9249 6.12601C25.0396 7.24643 25.9591 8.55014 26.6413 9.98366C27.5372 11.866 28.0014 13.9247 28 16.0093C27.9986 18.094 27.5317 20.152 26.6333 22.0331C25.9492 23.4658 25.0279 24.7683 23.9118 25.8872C23.3316 26.4688 22.3885 26.3649 21.8717 25.7263C21.3549 25.0878 21.4624 24.1573 22.0256 23.5593C22.8062 22.7306 23.4557 21.7838 23.9489 20.7512C24.6564 19.2697 25.0241 17.649 25.0252 16.0073C25.0263 14.3656 24.6607 12.7444 23.9552 11.2621C23.4634 10.2287 22.8151 9.28107 22.0357 8.45134C21.4732 7.85261 21.367 6.92202 21.8846 6.28415Z"/>
</mask>
<path d="M21.8846 6.28415C22.4022 5.64628 23.3456 5.54364 23.9249 6.12601C25.0396 7.24643 25.9591 8.55014 26.6413 9.98366C27.5372 11.866 28.0014 13.9247 28 16.0093C27.9986 18.094 27.5317 20.152 26.6333 22.0331C25.9492 23.4658 25.0279 24.7683 23.9118 25.8872C23.3316 26.4688 22.3885 26.3649 21.8717 25.7263C21.3549 25.0878 21.4624 24.1573 22.0256 23.5593C22.8062 22.7306 23.4557 21.7838 23.9489 20.7512C24.6564 19.2697 25.0241 17.649 25.0252 16.0073C25.0263 14.3656 24.6607 12.7444 23.9552 11.2621C23.4634 10.2287 22.8151 9.28107 22.0357 8.45134C21.4732 7.85261 21.367 6.92202 21.8846 6.28415Z" stroke="#7A4882" stroke-width="3.11111" mask="url(#path-3-inside-2)"/>
</svg>
